{
  "project_info": {
    "project_number": "775541066465",
    "firebase_url": "https://aurget-673d6.firebaseio.com",
    "project_id": "aurget-673d6",
    "storage_bucket": "aurget-673d6.appspot.com"
  },
  "client": [
    {
      "client_info": {
        "mobilesdk_app_id": "1:775541066465:android:bd9b829262e82d6489c5a0",
        "android_client_info": {
          "package_name": "com.aurget.buddha"
        }
      },
      "oauth_client": [
        {
          "client_id": "775541066465-ucqv4kbeinpg241gnv36abn3jgc3d006.apps.googleusercontent.com",
          "client_type": 3
        }
      ],
      "api_key": [
        {
          "current_key": "AIzaSyDz8rtfLXUcb7CjsKXKG3IGPDbEPSZpZzs"
        }
      ],
      "services": {
        "appinvite_service": {
          "other_platform_oauth_client": [
            {
              "client_id": "775541066465-ucqv4kbeinpg241gnv36abn3jgc3d006.apps.googleusercontent.com",
              "client_type": 3
            }
          ]
        }
      }
    }
  ],
  "configuration_version": "1"
}